<?xml version="1.0" encoding="UTF-8"?>
<svg width="212px" height="217px" viewBox="0 0 212 217" version="1.1" xmlns="http://www.w3.org/2000/svg" xmlns:xlink="http://www.w3.org/1999/xlink">
    <!-- Generator: Sketch 50 (54983) - http://www.bohemiancoding.com/sketch -->
    <title>INVIQ</title>
    <desc>Created with Sketch.</desc>
    <defs>
        <radialGradient cx="50%" cy="100%" fx="50%" fy="100%" r="100%" gradientTransform="translate(0.500000,1.000000),scale(0.884824,1.000000),rotate(-90.000000),translate(-0.500000,-1.000000)" id="radialGradient-1">
            <stop stop-color="#71DDA6" offset="0%"></stop>
            <stop stop-color="#70B2BC" offset="100%"></stop>
        </radialGradient>
    </defs>
    <g id="INVIQ" stroke="none" stroke-width="1" fill="none" fill-rule="evenodd">
        <path d="M24.3564989,24.682159 C17.3703875,24.682159 11.7005,30.3445467 11.7005,37.334408 L11.7005,147.023482 C11.7005,154.009593 17.3703875,159.679481 24.3564989,159.679481 L95.2188429,159.679481 L77.8791869,129.642576 L51.1759668,129.642576 C47.6510367,129.642576 44.7935934,126.785133 44.7935934,123.260203 L44.7935934,61.0976865 C44.7935934,57.5765064 47.6510367,54.7153131 51.1759668,54.7153131 L161.232533,54.7153131 C164.753713,54.7153131 167.611157,57.5765064 167.611157,61.0976865 L167.611157,123.260203 C167.611157,126.785133 164.753713,129.642576 161.232533,129.642576 L102.452449,129.642576 L119.792105,159.679481 L136.528023,188.666405 C137.761749,190.796363 139.899206,191.880092 142.047914,191.913841 L142.25791,191.913841 C144.410367,191.880092 146.547824,190.796363 147.77405,188.666405 L163.279992,161.820688 C164.041227,160.496964 165.454949,159.679481 166.988669,159.679481 L188.044501,159.679481 C195.034362,159.679481 200.7005,154.009593 200.7005,147.023482 L200.7005,37.334408 C200.7005,30.3445467 195.034362,24.682159 188.044501,24.682159 L24.3564989,24.682159 Z" id="Fill-1" fill="url(#radialGradient-1)"></path>
    </g>
</svg>